Baby Names
…
Baby Names

Hannah Valencia

1/29/2020

babynames %>%
  filter(name == "Alison")

## # A tibble: 174 x 5
##     year sex   name       n       prop
##    <dbl> <chr> <chr>  <int>      <dbl>
##  1  1905 F     Alison     7 0.0000226 
##  2  1907 F     Alison     5 0.0000148 
##  3  1910 F     Alison     5 0.0000119 
##  4  1912 F     Alison     9 0.0000153 
##  5  1913 F     Alison    12 0.0000183 
##  6  1913 M     Alison     7 0.0000130 
##  7  1914 F     Alison    22 0.0000276 
##  8  1914 M     Alison     6 0.00000878
##  9  1915 F     Alison    16 0.0000156 
## 10  1916 F     Alison    15 0.0000138 
## #  with 164 more rows
…
